{
  "DB" : {
    "WGSSkjFQxZTAjFy8jmuLBEEfUkN2" : {
      "UID" : "WGSSkjFQxZTAjFy8jmuLBEEfUkN2",
      "address" : "Curug Sangereng Kel., Kelapa Dua, Tangerang Kabupaten, Banten, 15834",
      "email" : "user@gmail.com",
      "lat" : "-6.2520164",
      "lng" : "106.6172239",
      "name" : "user 1",
      "phone" : "123123123",
      "shop_description" : "-",
      "type" : "user"
    },
    "bN330b2gvzMrl8Idgle0uk4zAt73" : {
      "UID" : "bN330b2gvzMrl8Idgle0uk4zAt73",
      "address" : "Curug Sangereng Kel., Kelapa Dua, Tangerang Kabupaten, Banten, 15834",
      "email" : "toko2@gmail.com",
      "lat" : "-6.2200967208974305",
      "lng" : "106.64961756955546",
      "name" : "ihh",
      "phone" : "082828282",
      "shop_description" : "-",
      "type" : "shop"
    },
    "oRZq9u0hneSfN13riaEgXbBTrAv2" : {
      "UID" : "oRZq9u0hneSfN13riaEgXbBTrAv2",
      "address" : "Curug Sangereng Kel., Kelapa Dua, Tangerang Kabupaten, Banten, 15834",
      "email" : "fe@gmail.com",
      "lat" : "-6.2493761999999995",
      "lng" : "106.6232474",
      "name" : "fefe",
      "phone" : "208921",
      "shop_description" : "-",
      "type" : "shop"
    },
    "vOgJeI6UKMX2T2klHO4bxdDAMcZ2" : {
      "UID" : "vOgJeI6UKMX2T2klHO4bxdDAMcZ2",
      "address" : "crugg crug Curug Sangereng Kel., Kelapa Dua, Tangerang Kabupaten, Banten, 15834",
      "email" : "tokoo1@gmail.com",
      "lat" : "-6.252381870876055",
      "lng" : "106.61725612883606",
      "name" : "Wijaya",
      "phone" : "0817620711",
      "shop_description" : "deket",
      "type" : "shop"
    }
  },
  "order_count" : 20,
  "order_shop" : {
    "bN330b2gvzMrl8Idgle0uk4zAt73" : [ {
      "delivery_status" : "delivered",
      "order_id" : "0",
      "order_status" : "done",
      "product" : [ {
        "price_per_volume" : "10000",
        "product_name" : "Pertalite",
        "volume" : "10"
      }, {
        "price_per_volume" : "11000",
        "product_name" : "Pertamax",
        "volume" : "2"
      } ],
      "sales_order_status" : "accepted",
      "shop_name" : "toko",
      "shop_new_order" : "new",
      "shop_phone" : "123456789",
      "shop_uid" : "bN330b2gvzMrl8Idgle0uk4zAt73",
      "total_price" : "21000",
      "user_lat" : "-6.168329",
      "user_lng" : "106.758850",
      "user_name" : "user",
      "user_notes" : "deket warjo ya, baju ijo",
      "user_phone" : "0817620711",
      "user_uid" : "WGSSkjFQxZTAjFy8jmuLBEEfUkN2"
    }, {
      "delivery_status" : "delivered",
      "order_id" : "1",
      "order_status" : "done",
      "product" : [ {
        "price_per_volume" : "10000",
        "product_name" : "Pertalite",
        "volume" : "10"
      }, {
        "price_per_volume" : "10000",
        "product_name" : "Pertamax",
        "volume" : "2"
      } ],
      "sales_order_status" : "accepted",
      "shop_name" : "toko",
      "shop_new_order" : "new",
      "shop_phone" : "123456789",
      "shop_uid" : "bN330b2gvzMrl8Idgle0uk4zAt73",
      "total_price" : "20000",
      "user_lat" : "-6.168329",
      "user_lng" : "106.758850",
      "user_name" : "user",
      "user_notes" : "deket warjo ya, baju ijo",
      "user_phone" : "0817620711",
      "user_uid" : "WGSSkjFQxZTAjFy8jmuLBEEfUkN2"
    }, {
      "delivery_status" : "pending",
      "order_id" : "4",
      "order_status" : "ongoing",
      "product" : [ {
        "price_per_volume" : "10000",
        "product_name" : "premiom",
        "volume" : "2"
      } ],
      "sales_order_status" : "accepted",
      "shop_name" : "ihh",
      "shop_new_order" : "new",
      "shop_phone" : "08176207115415455",
      "shop_uid" : "bN330b2gvzMrl8Idgle0uk4zAt73",
      "total_price" : "20000",
      "user_lat" : "-6.2520164",
      "user_lng" : "106.6172239",
      "user_name" : "user 1",
      "user_notes" : "fefefefe",
      "user_phone" : "123123123",
      "user_uid" : "WGSSkjFQxZTAjFy8jmuLBEEfUkN2"
    }, {
      "delivery_status" : "pending",
      "order_id" : "6",
      "order_status" : "ongoing",
      "product" : [ {
        "price_per_volume" : "10000",
        "product_name" : "pertomax",
        "volume" : "10"
      } ],
      "sales_order_status" : "pending",
      "shop_name" : "ihh",
      "shop_new_order" : "new",
      "shop_phone" : "08176207115415455",
      "shop_uid" : "bN330b2gvzMrl8Idgle0uk4zAt73",
      "total_price" : "100000",
      "user_lat" : "-6.2520164",
      "user_lng" : "106.6172239",
      "user_name" : "user 1",
      "user_notes" : "oekoe",
      "user_phone" : "123123123",
      "user_uid" : "WGSSkjFQxZTAjFy8jmuLBEEfUkN2"
    }, {
      "delivery_status" : "pending",
      "order_id" : "7",
      "order_status" : "ongoing",
      "product" : [ {
        "price_per_volume" : "10000",
        "product_name" : "premiom",
        "volume" : "23"
      } ],
      "sales_order_status" : "pending",
      "shop_name" : "ihh",
      "shop_new_order" : "new",
      "shop_phone" : "08176207115415455",
      "shop_uid" : "bN330b2gvzMrl8Idgle0uk4zAt73",
      "total_price" : "230000",
      "user_lat" : "-6.2520164",
      "user_lng" : "106.6172239",
      "user_name" : "user 1",
      "user_notes" : "",
      "user_phone" : "123123123",
      "user_uid" : "WGSSkjFQxZTAjFy8jmuLBEEfUkN2"
    }, {
      "delivery_status" : "pending",
      "order_id" : "11",
      "order_status" : "ongoing",
      "product" : [ {
        "price_per_volume" : "10000",
        "product_name" : "premiom",
        "volume" : "5"
      } ],
      "sales_order_status" : "pending",
      "shop_name" : "ihh",
      "shop_new_order" : "new",
      "shop_phone" : "08176207115415455",
      "shop_uid" : "bN330b2gvzMrl8Idgle0uk4zAt73",
      "total_price" : "50000",
      "user_lat" : "-6.2520164",
      "user_lng" : "106.6172239",
      "user_name" : "user 1",
      "user_notes" : "",
      "user_phone" : "123123123",
      "user_uid" : "WGSSkjFQxZTAjFy8jmuLBEEfUkN2"
    }, {
      "delivery_status" : "pending",
      "order_id" : "16",
      "order_status" : "ongoing",
      "product" : [ {
        "price_per_volume" : "10000",
        "product_name" : "premiom",
        "volume" : "1"
      } ],
      "sales_order_status" : "pending",
      "shop_name" : "ihh",
      "shop_new_order" : "new",
      "shop_phone" : "082828282",
      "shop_uid" : "bN330b2gvzMrl8Idgle0uk4zAt73",
      "total_price" : "10000",
      "user_lat" : "-6.2520164",
      "user_lng" : "106.6172239",
      "user_name" : "user 1",
      "user_notes" : "campur",
      "user_phone" : "123123123",
      "user_uid" : "WGSSkjFQxZTAjFy8jmuLBEEfUkN2"
    }, {
      "delivery_status" : "pending",
      "order_id" : "18",
      "order_status" : "ongoing",
      "product" : [ {
        "price_per_volume" : "10000",
        "product_name" : "premiom",
        "volume" : "2"
      } ],
      "sales_order_status" : "pending",
      "shop_name" : "ihh",
      "shop_new_order" : "new",
      "shop_phone" : "082828282",
      "shop_uid" : "bN330b2gvzMrl8Idgle0uk4zAt73",
      "total_price" : "20000",
      "user_lat" : "-6.2520164",
      "user_lng" : "106.6172239",
      "user_name" : "user 1",
      "user_notes" : "",
      "user_phone" : "123123123",
      "user_uid" : "WGSSkjFQxZTAjFy8jmuLBEEfUkN2"
    } ],
    "oRZq9u0hneSfN13riaEgXbBTrAv2" : [ {
      "delivery_status" : "delivered",
      "order_id" : "8",
      "order_status" : "done",
      "product" : [ {
        "price_per_volume" : "20000",
        "product_name" : "pertolite",
        "volume" : "2"
      } ],
      "sales_order_status" : "accepted",
      "shop_name" : "fefe",
      "shop_new_order" : "new",
      "shop_phone" : "208921",
      "shop_uid" : "oRZq9u0hneSfN13riaEgXbBTrAv2",
      "total_price" : "40000",
      "user_lat" : "-6.2520164",
      "user_lng" : "106.6172239",
      "user_name" : "user 1",
      "user_notes" : "oke",
      "user_phone" : "123123123",
      "user_uid" : "WGSSkjFQxZTAjFy8jmuLBEEfUkN2"
    }, {
      "delivery_status" : "delivered",
      "order_id" : "9",
      "order_status" : "done",
      "product" : [ {
        "price_per_volume" : "30000",
        "product_name" : "premiom",
        "volume" : "2"
      } ],
      "sales_order_status" : "accepted",
      "shop_name" : "fefe",
      "shop_new_order" : "new",
      "shop_phone" : "208921",
      "shop_uid" : "oRZq9u0hneSfN13riaEgXbBTrAv2",
      "total_price" : "60000",
      "user_lat" : "-6.2520164",
      "user_lng" : "106.6172239",
      "user_name" : "user 1",
      "user_notes" : "",
      "user_phone" : "123123123",
      "user_uid" : "WGSSkjFQxZTAjFy8jmuLBEEfUkN2"
    }, {
      "delivery_status" : "delivered",
      "order_id" : "10",
      "order_status" : "done",
      "product" : [ {
        "price_per_volume" : "20000",
        "product_name" : "pertolite",
        "volume" : "5"
      } ],
      "sales_order_status" : "accepted",
      "shop_name" : "fefe",
      "shop_new_order" : "new",
      "shop_phone" : "208921",
      "shop_uid" : "oRZq9u0hneSfN13riaEgXbBTrAv2",
      "total_price" : "100000",
      "user_lat" : "-6.2520164",
      "user_lng" : "106.6172239",
      "user_name" : "user 1",
      "user_notes" : "oke",
      "user_phone" : "123123123",
      "user_uid" : "WGSSkjFQxZTAjFy8jmuLBEEfUkN2"
    }, {
      "delivery_status" : "delivered",
      "order_id" : "12",
      "order_status" : "done",
      "product" : [ {
        "price_per_volume" : "20000",
        "product_name" : "pertolite",
        "volume" : "2"
      } ],
      "sales_order_status" : "accepted",
      "shop_name" : "fefe",
      "shop_new_order" : "new",
      "shop_phone" : "208921",
      "shop_uid" : "oRZq9u0hneSfN13riaEgXbBTrAv2",
      "total_price" : "40000",
      "user_lat" : "-6.2520164",
      "user_lng" : "106.6172239",
      "user_name" : "user 1",
      "user_notes" : "",
      "user_phone" : "123123123",
      "user_uid" : "WGSSkjFQxZTAjFy8jmuLBEEfUkN2"
    }, {
      "delivery_status" : "delivered",
      "order_id" : "14",
      "order_status" : "done",
      "product" : [ {
        "price_per_volume" : "30000",
        "product_name" : "premiom",
        "volume" : "2"
      } ],
      "sales_order_status" : "accepted",
      "shop_name" : "fefe",
      "shop_new_order" : "new",
      "shop_phone" : "208921",
      "shop_uid" : "oRZq9u0hneSfN13riaEgXbBTrAv2",
      "total_price" : "60000",
      "user_lat" : "-6.2520164",
      "user_lng" : "106.6172239",
      "user_name" : "user 1",
      "user_notes" : "",
      "user_phone" : "123123123",
      "user_uid" : "WGSSkjFQxZTAjFy8jmuLBEEfUkN2"
    }, {
      "delivery_status" : "rejected",
      "order_id" : "15",
      "order_status" : "done",
      "product" : [ {
        "price_per_volume" : "20000",
        "product_name" : "pertolite",
        "volume" : "5"
      } ],
      "sales_order_status" : "rejected",
      "shop_name" : "fefe",
      "shop_new_order" : "new",
      "shop_phone" : "208921",
      "shop_uid" : "oRZq9u0hneSfN13riaEgXbBTrAv2",
      "total_price" : "100000",
      "user_lat" : "-6.2520164",
      "user_lng" : "106.6172239",
      "user_name" : "user 1",
      "user_notes" : "",
      "user_phone" : "123123123",
      "user_uid" : "WGSSkjFQxZTAjFy8jmuLBEEfUkN2"
    }, {
      "delivery_status" : "pending",
      "order_id" : "17",
      "order_status" : "ongoing",
      "product" : [ {
        "price_per_volume" : "30000",
        "product_name" : "premiom",
        "volume" : "3"
      } ],
      "sales_order_status" : "accepted",
      "shop_name" : "fefe",
      "shop_new_order" : "new",
      "shop_phone" : "208921",
      "shop_uid" : "oRZq9u0hneSfN13riaEgXbBTrAv2",
      "total_price" : "90000",
      "user_lat" : "-6.2520164",
      "user_lng" : "106.6172239",
      "user_name" : "user 1",
      "user_notes" : "",
      "user_phone" : "123123123",
      "user_uid" : "WGSSkjFQxZTAjFy8jmuLBEEfUkN2"
    }, {
      "delivery_status" : "rejected",
      "order_id" : "19",
      "order_status" : "done",
      "product" : [ {
        "price_per_volume" : "30000",
        "product_name" : "premiom",
        "volume" : "2"
      } ],
      "sales_order_status" : "rejected",
      "shop_name" : "fefe",
      "shop_new_order" : "new",
      "shop_phone" : "208921",
      "shop_uid" : "oRZq9u0hneSfN13riaEgXbBTrAv2",
      "total_price" : "60000",
      "user_lat" : "-6.2520164",
      "user_lng" : "106.6172239",
      "user_name" : "user 1",
      "user_notes" : "",
      "user_phone" : "123123123",
      "user_uid" : "WGSSkjFQxZTAjFy8jmuLBEEfUkN2"
    } ],
    "vOgJeI6UKMX2T2klHO4bxdDAMcZ2" : [ {
      "delivery_status" : "delivered",
      "order_id" : "2",
      "order_status" : "done",
      "product" : [ {
        "price_per_volume" : "10000",
        "product_name" : "Pertalite",
        "volume" : "10"
      }, {
        "price_per_volume" : "11000",
        "product_name" : "Pertamax",
        "volume" : "2"
      } ],
      "sales_order_status" : "accepted",
      "shop_name" : "toko",
      "shop_new_order" : "new",
      "shop_phone" : "123456789",
      "shop_uid" : "vOgJeI6UKMX2T2klHO4bxdDAMcZ2",
      "total_price" : "21000",
      "user_lat" : "-6.168329",
      "user_lng" : "106.758850",
      "user_name" : "user",
      "user_notes" : "deket warjo ya, baju ijo",
      "user_phone" : "0817620711",
      "user_uid" : "WGSSkjFQxZTAjFy8jmuLBEEfUkN2"
    }, {
      "delivery_status" : "pending",
      "order_id" : "3",
      "order_status" : "ongoing",
      "product" : [ {
        "price_per_volume" : "10000",
        "product_name" : "Pertalite",
        "volume" : "10"
      }, {
        "price_per_volume" : "10000",
        "product_name" : "Pertamax",
        "volume" : "2"
      } ],
      "sales_order_status" : "accepted",
      "shop_name" : "toko",
      "shop_new_order" : "new",
      "shop_phone" : "123456789",
      "shop_uid" : "vOgJeI6UKMX2T2klHO4bxdDAMcZ2",
      "total_price" : "20000",
      "user_lat" : "-6.168329",
      "user_lng" : "106.758850",
      "user_name" : "user",
      "user_notes" : "deket warjo ya, baju ijo",
      "user_phone" : "0817620711",
      "user_uid" : "WGSSkjFQxZTAjFy8jmuLBEEfUkN2"
    }, {
      "delivery_status" : "pending",
      "order_id" : "5",
      "order_status" : "ongoing",
      "product" : [ {
        "price_per_volume" : "10000",
        "product_name" : "premiom",
        "volume" : "3"
      } ],
      "sales_order_status" : "pending",
      "shop_name" : "Wijaya",
      "shop_new_order" : "new",
      "shop_phone" : "0817620711",
      "shop_uid" : "vOgJeI6UKMX2T2klHO4bxdDAMcZ2",
      "total_price" : "30000",
      "user_lat" : "-6.2520164",
      "user_lng" : "106.6172239",
      "user_name" : "user 1",
      "user_notes" : "oekoekoe",
      "user_phone" : "123123123",
      "user_uid" : "WGSSkjFQxZTAjFy8jmuLBEEfUkN2"
    } ]
  },
  "order_user" : {
    "WGSSkjFQxZTAjFy8jmuLBEEfUkN2" : [ {
      "delivery_status" : "delivered",
      "order_id" : "0",
      "order_status" : "done",
      "product" : [ {
        "price_per_volume" : "10000",
        "product_name" : "Pertalite",
        "volume" : "10"
      }, {
        "price_per_volume" : "11000",
        "product_name" : "Pertamax",
        "volume" : "2"
      } ],
      "sales_order_status" : "accepted",
      "shop_name" : "toko",
      "shop_new_order" : "new",
      "shop_phone" : "123456789",
      "shop_uid" : "bN330b2gvzMrl8Idgle0uk4zAt73",
      "total_price" : "21000",
      "user_lat" : "-6.168329",
      "user_lng" : "106.758850",
      "user_name" : "user",
      "user_notes" : "deket warjo ya, baju ijo",
      "user_phone" : "0817620711",
      "user_uid" : "WGSSkjFQxZTAjFy8jmuLBEEfUkN2"
    }, {
      "delivery_status" : "delivered",
      "order_id" : "1",
      "order_status" : "done",
      "product" : [ {
        "price_per_volume" : "10000",
        "product_name" : "Pertalite",
        "volume" : "10"
      }, {
        "price_per_volume" : "10000",
        "product_name" : "Pertamax",
        "volume" : "2"
      } ],
      "sales_order_status" : "accepted",
      "shop_name" : "toko",
      "shop_new_order" : "new",
      "shop_phone" : "123456789",
      "shop_uid" : "bN330b2gvzMrl8Idgle0uk4zAt73",
      "total_price" : "20000",
      "user_lat" : "-6.168329",
      "user_lng" : "106.758850",
      "user_name" : "user",
      "user_notes" : "deket warjo ya, baju ijo",
      "user_phone" : "0817620711",
      "user_uid" : "WGSSkjFQxZTAjFy8jmuLBEEfUkN2"
    }, {
      "delivery_status" : "delivered",
      "order_id" : "2",
      "order_status" : "done",
      "product" : [ {
        "price_per_volume" : "10000",
        "product_name" : "Pertalite",
        "volume" : "10"
      }, {
        "price_per_volume" : "11000",
        "product_name" : "Pertamax",
        "volume" : "2"
      } ],
      "sales_order_status" : "accepted",
      "shop_name" : "toko",
      "shop_new_order" : "new",
      "shop_phone" : "123456789",
      "shop_uid" : "vOgJeI6UKMX2T2klHO4bxdDAMcZ2",
      "total_price" : "21000",
      "user_lat" : "-6.168329",
      "user_lng" : "106.758850",
      "user_name" : "user",
      "user_notes" : "deket warjo ya, baju ijo",
      "user_phone" : "0817620711",
      "user_uid" : "WGSSkjFQxZTAjFy8jmuLBEEfUkN2"
    }, {
      "delivery_status" : "pending",
      "order_id" : "3",
      "order_status" : "ongoing",
      "product" : [ {
        "price_per_volume" : "10000",
        "product_name" : "Pertalite",
        "volume" : "10"
      }, {
        "price_per_volume" : "10000",
        "product_name" : "Pertamax",
        "volume" : "2"
      } ],
      "sales_order_status" : "accepted",
      "shop_name" : "toko",
      "shop_new_order" : "new",
      "shop_phone" : "123456789",
      "shop_uid" : "vOgJeI6UKMX2T2klHO4bxdDAMcZ2",
      "total_price" : "20000",
      "user_lat" : "-6.168329",
      "user_lng" : "106.758850",
      "user_name" : "user",
      "user_notes" : "deket warjo ya, baju ijo",
      "user_phone" : "0817620711",
      "user_uid" : "WGSSkjFQxZTAjFy8jmuLBEEfUkN2"
    }, {
      "delivery_status" : "pending",
      "order_id" : "4",
      "order_status" : "ongoing",
      "product" : [ {
        "price_per_volume" : "10000",
        "product_name" : "premiom",
        "volume" : "2"
      } ],
      "sales_order_status" : "accepted",
      "shop_name" : "ihh",
      "shop_new_order" : "new",
      "shop_phone" : "08176207115415455",
      "shop_uid" : "bN330b2gvzMrl8Idgle0uk4zAt73",
      "total_price" : "20000",
      "user_lat" : "-6.2520164",
      "user_lng" : "106.6172239",
      "user_name" : "user 1",
      "user_notes" : "fefefefe",
      "user_phone" : "123123123",
      "user_uid" : "WGSSkjFQxZTAjFy8jmuLBEEfUkN2"
    }, {
      "delivery_status" : "pending",
      "order_id" : "5",
      "order_status" : "ongoing",
      "product" : [ {
        "price_per_volume" : "10000",
        "product_name" : "premiom",
        "volume" : "3"
      } ],
      "sales_order_status" : "pending",
      "shop_name" : "Wijaya",
      "shop_new_order" : "new",
      "shop_phone" : "0817620711",
      "shop_uid" : "vOgJeI6UKMX2T2klHO4bxdDAMcZ2",
      "total_price" : "30000",
      "user_lat" : "-6.2520164",
      "user_lng" : "106.6172239",
      "user_name" : "user 1",
      "user_notes" : "oekoekoe",
      "user_phone" : "123123123",
      "user_uid" : "WGSSkjFQxZTAjFy8jmuLBEEfUkN2"
    }, {
      "delivery_status" : "pending",
      "order_id" : "6",
      "order_status" : "ongoing",
      "product" : [ {
        "price_per_volume" : "10000",
        "product_name" : "pertomax",
        "volume" : "10"
      } ],
      "sales_order_status" : "pending",
      "shop_name" : "ihh",
      "shop_new_order" : "new",
      "shop_phone" : "08176207115415455",
      "shop_uid" : "bN330b2gvzMrl8Idgle0uk4zAt73",
      "total_price" : "100000",
      "user_lat" : "-6.2520164",
      "user_lng" : "106.6172239",
      "user_name" : "user 1",
      "user_notes" : "oekoe",
      "user_phone" : "123123123",
      "user_uid" : "WGSSkjFQxZTAjFy8jmuLBEEfUkN2"
    }, {
      "delivery_status" : "pending",
      "order_id" : "7",
      "order_status" : "ongoing",
      "product" : [ {
        "price_per_volume" : "10000",
        "product_name" : "premiom",
        "volume" : "23"
      } ],
      "sales_order_status" : "pending",
      "shop_name" : "ihh",
      "shop_new_order" : "new",
      "shop_phone" : "08176207115415455",
      "shop_uid" : "bN330b2gvzMrl8Idgle0uk4zAt73",
      "total_price" : "230000",
      "user_lat" : "-6.2520164",
      "user_lng" : "106.6172239",
      "user_name" : "user 1",
      "user_notes" : "",
      "user_phone" : "123123123",
      "user_uid" : "WGSSkjFQxZTAjFy8jmuLBEEfUkN2"
    }, {
      "delivery_status" : "delivered",
      "order_id" : "8",
      "order_status" : "done",
      "product" : [ {
        "price_per_volume" : "20000",
        "product_name" : "pertolite",
        "volume" : "2"
      } ],
      "sales_order_status" : "accepted",
      "shop_name" : "fefe",
      "shop_new_order" : "new",
      "shop_phone" : "208921",
      "shop_uid" : "oRZq9u0hneSfN13riaEgXbBTrAv2",
      "total_price" : "40000",
      "user_lat" : "-6.2520164",
      "user_lng" : "106.6172239",
      "user_name" : "user 1",
      "user_notes" : "oke",
      "user_phone" : "123123123",
      "user_uid" : "WGSSkjFQxZTAjFy8jmuLBEEfUkN2"
    }, {
      "delivery_status" : "delivered",
      "order_id" : "9",
      "order_status" : "done",
      "product" : [ {
        "price_per_volume" : "30000",
        "product_name" : "premiom",
        "volume" : "2"
      } ],
      "sales_order_status" : "accepted",
      "shop_name" : "fefe",
      "shop_new_order" : "new",
      "shop_phone" : "208921",
      "shop_uid" : "oRZq9u0hneSfN13riaEgXbBTrAv2",
      "total_price" : "60000",
      "user_lat" : "-6.2520164",
      "user_lng" : "106.6172239",
      "user_name" : "user 1",
      "user_notes" : "",
      "user_phone" : "123123123",
      "user_uid" : "WGSSkjFQxZTAjFy8jmuLBEEfUkN2"
    }, {
      "delivery_status" : "delivered",
      "order_id" : "10",
      "order_status" : "done",
      "product" : [ {
        "price_per_volume" : "20000",
        "product_name" : "pertolite",
        "volume" : "5"
      } ],
      "sales_order_status" : "accepted",
      "shop_name" : "fefe",
      "shop_new_order" : "new",
      "shop_phone" : "208921",
      "shop_uid" : "oRZq9u0hneSfN13riaEgXbBTrAv2",
      "total_price" : "100000",
      "user_lat" : "-6.2520164",
      "user_lng" : "106.6172239",
      "user_name" : "user 1",
      "user_notes" : "oke",
      "user_phone" : "123123123",
      "user_uid" : "WGSSkjFQxZTAjFy8jmuLBEEfUkN2"
    }, {
      "delivery_status" : "pending",
      "order_id" : "11",
      "order_status" : "ongoing",
      "product" : [ {
        "price_per_volume" : "10000",
        "product_name" : "premiom",
        "volume" : "5"
      } ],
      "sales_order_status" : "pending",
      "shop_name" : "ihh",
      "shop_new_order" : "new",
      "shop_phone" : "08176207115415455",
      "shop_uid" : "bN330b2gvzMrl8Idgle0uk4zAt73",
      "total_price" : "50000",
      "user_lat" : "-6.2520164",
      "user_lng" : "106.6172239",
      "user_name" : "user 1",
      "user_notes" : "",
      "user_phone" : "123123123",
      "user_uid" : "WGSSkjFQxZTAjFy8jmuLBEEfUkN2"
    }, {
      "delivery_status" : "delivered",
      "order_id" : "12",
      "order_status" : "done",
      "product" : [ {
        "price_per_volume" : "20000",
        "product_name" : "pertolite",
        "volume" : "2"
      } ],
      "sales_order_status" : "accepted",
      "shop_name" : "fefe",
      "shop_new_order" : "new",
      "shop_phone" : "208921",
      "shop_uid" : "oRZq9u0hneSfN13riaEgXbBTrAv2",
      "total_price" : "40000",
      "user_lat" : "-6.2520164",
      "user_lng" : "106.6172239",
      "user_name" : "user 1",
      "user_notes" : "",
      "user_phone" : "123123123",
      "user_uid" : "WGSSkjFQxZTAjFy8jmuLBEEfUkN2"
    }, {
      "delivery_status" : "pending",
      "order_id" : "13",
      "order_status" : "ongoing",
      "product" : [ {
        "price_per_volume" : "30000",
        "product_name" : "premiom",
        "volume" : "2"
      } ],
      "sales_order_status" : "pending",
      "shop_name" : "fefe",
      "shop_new_order" : "new",
      "shop_phone" : "208921",
      "shop_uid" : "oRZq9u0hneSfN13riaEgXbBTrAv2",
      "total_price" : "60000",
      "user_lat" : "-6.2520164",
      "user_lng" : "106.6172239",
      "user_name" : "user 1",
      "user_notes" : "",
      "user_phone" : "123123123",
      "user_uid" : "WGSSkjFQxZTAjFy8jmuLBEEfUkN2"
    }, {
      "delivery_status" : "delivered",
      "order_id" : "14",
      "order_status" : "done",
      "product" : [ {
        "price_per_volume" : "30000",
        "product_name" : "premiom",
        "volume" : "2"
      } ],
      "sales_order_status" : "accepted",
      "shop_name" : "fefe",
      "shop_new_order" : "new",
      "shop_phone" : "208921",
      "shop_uid" : "oRZq9u0hneSfN13riaEgXbBTrAv2",
      "total_price" : "60000",
      "user_lat" : "-6.2520164",
      "user_lng" : "106.6172239",
      "user_name" : "user 1",
      "user_notes" : "",
      "user_phone" : "123123123",
      "user_uid" : "WGSSkjFQxZTAjFy8jmuLBEEfUkN2"
    }, {
      "delivery_status" : "rejected",
      "order_id" : "15",
      "order_status" : "done",
      "product" : [ {
        "price_per_volume" : "20000",
        "product_name" : "pertolite",
        "volume" : "5"
      } ],
      "sales_order_status" : "rejected",
      "shop_name" : "fefe",
      "shop_new_order" : "new",
      "shop_phone" : "208921",
      "shop_uid" : "oRZq9u0hneSfN13riaEgXbBTrAv2",
      "total_price" : "100000",
      "user_lat" : "-6.2520164",
      "user_lng" : "106.6172239",
      "user_name" : "user 1",
      "user_notes" : "",
      "user_phone" : "123123123",
      "user_uid" : "WGSSkjFQxZTAjFy8jmuLBEEfUkN2"
    }, {
      "delivery_status" : "pending",
      "order_id" : "16",
      "order_status" : "ongoing",
      "product" : [ {
        "price_per_volume" : "10000",
        "product_name" : "premiom",
        "volume" : "1"
      } ],
      "sales_order_status" : "pending",
      "shop_name" : "ihh",
      "shop_new_order" : "new",
      "shop_phone" : "082828282",
      "shop_uid" : "bN330b2gvzMrl8Idgle0uk4zAt73",
      "total_price" : "10000",
      "user_lat" : "-6.2520164",
      "user_lng" : "106.6172239",
      "user_name" : "user 1",
      "user_notes" : "campur",
      "user_phone" : "123123123",
      "user_uid" : "WGSSkjFQxZTAjFy8jmuLBEEfUkN2"
    }, {
      "delivery_status" : "pending",
      "order_id" : "17",
      "order_status" : "ongoing",
      "product" : [ {
        "price_per_volume" : "30000",
        "product_name" : "premiom",
        "volume" : "3"
      } ],
      "sales_order_status" : "accepted",
      "shop_name" : "fefe",
      "shop_new_order" : "new",
      "shop_phone" : "208921",
      "shop_uid" : "oRZq9u0hneSfN13riaEgXbBTrAv2",
      "total_price" : "90000",
      "user_lat" : "-6.2520164",
      "user_lng" : "106.6172239",
      "user_name" : "user 1",
      "user_notes" : "",
      "user_phone" : "123123123",
      "user_uid" : "WGSSkjFQxZTAjFy8jmuLBEEfUkN2"
    }, {
      "delivery_status" : "pending",
      "order_id" : "18",
      "order_status" : "ongoing",
      "product" : [ {
        "price_per_volume" : "10000",
        "product_name" : "premiom",
        "volume" : "2"
      } ],
      "sales_order_status" : "pending",
      "shop_name" : "ihh",
      "shop_new_order" : "new",
      "shop_phone" : "082828282",
      "shop_uid" : "bN330b2gvzMrl8Idgle0uk4zAt73",
      "total_price" : "20000",
      "user_lat" : "-6.2520164",
      "user_lng" : "106.6172239",
      "user_name" : "user 1",
      "user_notes" : "",
      "user_phone" : "123123123",
      "user_uid" : "WGSSkjFQxZTAjFy8jmuLBEEfUkN2"
    }, {
      "delivery_status" : "rejected",
      "order_id" : "19",
      "order_status" : "done",
      "product" : [ {
        "price_per_volume" : "30000",
        "product_name" : "premiom",
        "volume" : "2"
      } ],
      "sales_order_status" : "rejected",
      "shop_name" : "fefe",
      "shop_new_order" : "new",
      "shop_phone" : "208921",
      "shop_uid" : "oRZq9u0hneSfN13riaEgXbBTrAv2",
      "total_price" : "60000",
      "user_lat" : "-6.2520164",
      "user_lng" : "106.6172239",
      "user_name" : "user 1",
      "user_notes" : "",
      "user_phone" : "123123123",
      "user_uid" : "WGSSkjFQxZTAjFy8jmuLBEEfUkN2"
    } ]
  },
  "shop" : {
    "bN330b2gvzMrl8Idgle0uk4zAt73" : {
      "UID" : "bN330b2gvzMrl8Idgle0uk4zAt73",
      "address" : "Curug Sangereng Kel., Kelapa Dua, Tangerang Kabupaten, Banten, 15834",
      "email" : "toko2@gmail.com",
      "lat" : "-6.2200967208974305",
      "lng" : "106.64961756955546",
      "name" : "ihh",
      "phone" : "082828282",
      "shop_description" : "-",
      "type" : "shop"
    },
    "oRZq9u0hneSfN13riaEgXbBTrAv2" : {
      "UID" : "oRZq9u0hneSfN13riaEgXbBTrAv2",
      "address" : "Curug Sangereng Kel., Kelapa Dua, Tangerang Kabupaten, Banten, 15834",
      "email" : "fe@gmail.com",
      "lat" : "-6.2493761999999995",
      "lng" : "106.6232474",
      "name" : "fefe",
      "phone" : "208921",
      "shop_description" : "-",
      "type" : "shop"
    },
    "vOgJeI6UKMX2T2klHO4bxdDAMcZ2" : {
      "UID" : "vOgJeI6UKMX2T2klHO4bxdDAMcZ2",
      "address" : "crugg crug Curug Sangereng Kel., Kelapa Dua, Tangerang Kabupaten, Banten, 15834",
      "email" : "tokoo1@gmail.com",
      "lat" : "-6.252381870876055",
      "lng" : "106.61725612883606",
      "name" : "Wijaya",
      "phone" : "0817620711",
      "shop_description" : "deket",
      "type" : "shop"
    }
  },
  "shop_products" : {
    "bN330b2gvzMrl8Idgle0uk4zAt73" : [ {
      "price_per_volume" : "10000",
      "product_name" : "pertolite",
      "status" : "hide",
      "stock_volume" : "10"
    }, {
      "price_per_volume" : "10000",
      "product_name" : "premiom",
      "status" : "show",
      "stock_volume" : "2"
    }, {
      "price_per_volume" : "10000",
      "product_name" : "pertomax",
      "status" : "show",
      "stock_volume" : "10"
    }, {
      "price_per_volume" : "10000",
      "product_name" : "pertomox_minus",
      "status" : "hide",
      "stock_volume" : "10"
    }, {
      "price_per_volume" : "10000",
      "product_name" : "solor",
      "status" : "show",
      "stock_volume" : "10"
    }, {
      "price_per_volume" : "10000",
      "product_name" : "campur-campur",
      "status" : "hide",
      "stock_volume" : "10"
    } ],
    "oRZq9u0hneSfN13riaEgXbBTrAv2" : [ {
      "price_per_volume" : "20000",
      "product_name" : "pertolite",
      "status" : "hide",
      "stock_volume" : "-4"
    }, {
      "price_per_volume" : "30000",
      "product_name" : "premiom",
      "status" : "show",
      "stock_volume" : "19"
    }, {
      "price_per_volume" : "0",
      "product_name" : "pertomax",
      "status" : "hide",
      "stock_volume" : "0"
    }, {
      "price_per_volume" : "0",
      "product_name" : "pertomox_minus",
      "status" : "hide",
      "stock_volume" : "0"
    }, {
      "price_per_volume" : "0",
      "product_name" : "solor",
      "status" : "hide",
      "stock_volume" : "0"
    }, {
      "price_per_volume" : "0",
      "product_name" : "campur-campur",
      "status" : "hide",
      "stock_volume" : "0"
    } ],
    "vOgJeI6UKMX2T2klHO4bxdDAMcZ2" : [ {
      "price_per_volume" : "10000",
      "product_name" : "pertolite",
      "status" : "hide",
      "stock_volume" : "10"
    }, {
      "price_per_volume" : "10000",
      "product_name" : "premiom",
      "status" : "show",
      "stock_volume" : "10"
    }, {
      "price_per_volume" : "10000",
      "product_name" : "pertomax",
      "status" : "show",
      "stock_volume" : "10"
    }, {
      "price_per_volume" : "10000",
      "product_name" : "pertomox_minus",
      "status" : "hide",
      "stock_volume" : "10"
    }, {
      "price_per_volume" : "10000",
      "product_name" : "solor",
      "status" : "show",
      "stock_volume" : "10"
    }, {
      "price_per_volume" : "10000",
      "product_name" : "campur-campur",
      "status" : "hide",
      "stock_volume" : "10"
    } ]
  },
  "user" : {
    "WGSSkjFQxZTAjFy8jmuLBEEfUkN2" : {
      "UID" : "WGSSkjFQxZTAjFy8jmuLBEEfUkN2",
      "address" : "Curug Sangereng Kel., Kelapa Dua, Tangerang Kabupaten, Banten, 15834",
      "email" : "user@gmail.com",
      "lat" : "-6.2520164",
      "lng" : "106.6172239",
      "name" : "user 1",
      "phone" : "123123123",
      "shop_description" : "-",
      "type" : "user"
    }
  }
}
